{
  "status": "success",
  "data": {
    "id": "c1ef8ee6-f6cc-4e10-8941-27ec8ad14d3f",
    "foodId": "101",
    "grams": 300,
    "date": "2022-06-22T08:00:00.000Z",
    "userId": "f54fcd8d-cdf2-4a02-a276-f3eeb3573324",
    "mealType": "breakfast",
    "deleted": null,
    "food": {
      "name": "Mango",
      "lowercaseName": "mango",
      "id": "101",
      "description": "Mango (per 100g)",
      "protein": 0.7,
      "carbs": 13.8,
      "sugar": 11,
      "fat": 0.2,
      "fiber": 2.6,
      "salt": 0,
      "imageUrl": "https://cdn.shopify.com/s/files/1/0521/2166/5695/products/Mango2.jpg?v=1610366602",
      "deleted": null,
      "creatorId": "4"
    }
  }
}
